…
Make a panel plot containing a time series plot (i.e. type = "l") of the 5-minute interval (x-axis) and the average number of steps taken, averaged across all weekday days or weekend days (y-axis).


```r
newDataSet1 <- mutate(newDataSet1, Day_type = as.factor(Day_type))

y1 <- group_by(newDataSet1, interval, Day_type)
y1
```

```
## Source: local data frame [17,568 x 5]
## Groups: interval, Day_type [576]
## 
##    interval    steps       date Average_Steps_per_Interval Day_type
##       <int>    <dbl>     <fctr>                      <dbl>   <fctr>
## 1         0 1.716981 2012-10-01                   1.716981  weekday
## 2         0 0.000000 2012-11-23                   1.716981  weekday
## 3         0 0.000000 2012-10-28                   1.716981  weekend
## 4         0 0.000000 2012-11-06                   1.716981  weekday
## 5         0 0.000000 2012-11-24                   1.716981  weekend
## 6         0 0.000000 2012-11-15                   1.716981  weekday
## 7         0 0.000000 2012-10-20                   1.716981  weekend
## 8         0 0.000000 2012-11-16                   1.716981  weekday
## 9         0 0.000000 2012-11-07                   1.716981  weekday
## 10        0 0.000000 2012-11-25                   1.716981  weekend
## # ... with 17,558 more rows
```

```r
plotdata2y1 <- summarize(y1, Average_Steps_per_Interval = mean(steps, na.rm = TRUE))
plotdata2y1
```

```
## Source: local data frame [576 x 3]
## Groups: interval [?]
## 
##    interval Day_type Average_Steps_per_Interval
##       <int>   <fctr>                      <dbl>
## 1         0  weekday                2.251153040
## 2         0  weekend                0.214622642
## 3         5  weekday                0.445283019
## 4         5  weekend                0.042452830
## 5        10  weekday                0.173165618
## 6        10  weekend                0.016509434
## 7        15  weekday                0.197903564
## 8        15  weekend                0.018867925
## 9        20  weekday                0.098951782
## 10       20  weekend                0.009433962
## # ... with 566 more rows
```
…
